Case Study 01
…
#4.a- Compute the median alcohol content and international bitterness unit for each state. Plot a bar chart to compare.

Alc <- BrewPub %>%
  na.omit()  %>%
group_by(State) %>%
summarise_each(list(median), Median_ABV = ABV) %>%
arrange(Median_ABV)

Alc

## # A tibble: 50 x 2
##    State Median_ABV
##    <chr>      <dbl>
##  1 AR        0.04  
##  2 UT        0.04  
##  3 NJ        0.046 
##  4 NH        0.0465
##  5 KS        0.05  
##  6 MO        0.05  
##  7 ND        0.05  
##  8 SC        0.05  
##  9 WI        0.051 
## 10 LA        0.051 
## # ... with 40 more rows

4.b- Compute the median international bitterness unit for each state.

Bitter <- BrewPub %>%
  na.omit() %>%
group_by(State) %>%
summarise_each(list(median), Median_IBU = IBU) %>%
arrange(Median_IBU)

Bitter

## # A tibble: 50 x 2
##    State Median_IBU
##    <chr>      <dbl>
##  1 WI          19  
##  2 AZ          20  
##  3 KS          20  
##  4 WY          21  
##  5 HI          22.5
##  6 MO          24  
##  7 RI          24  
##  8 IA          26  
##  9 CT          29  
## 10 MD          29  
## # ... with 40 more rows
…
