CaseStudy
…
combined <- beers %>% left_join(breweries, by = c("Brewery_id" = "Brew_ID"))
byState <- combined %>% select(State, Brewery_id, ABV, IBU) %>% group_by(State) %>% 
  summarise(Brewery_Count = n(), Median_ABV = median(ABV,na.rm=TRUE), Median_IBU = median(IBU,na.rm=TRUE), Max_ABV = max(ABV,na.rm=TRUE), Max_IBU = max(IBU,na.rm=TRUE))

1. How many breweries are present in each state?

byState %>% select(State, Brewery_Count)

## # A tibble: 51 x 2
##    State Brewery_Count
##    <chr>         <int>
##  1 AK               25
##  2 AL               10
##  3 AR                5
##  4 AZ               47
##  5 CA              183
##  6 CO              265
##  7 CT               27
##  8 DC                8
##  9 DE                2
## 10 FL               58
## # ... with 41 more rows
…
