…
This plot shows the top 10 styles of beer from the dataset. IPA and Pale Ale are the the two strongest by a fair margin.

```r
brewByState <- breweries %>% group_by(State) %>% summarise(count = n()) %>% 
    arrange(-count)
brewByState
```

```
# A tibble: 51 x 2
   State count
   <chr> <int>
 1 CO       47
 2 CA       39
 3 MI       32
 4 OR       29
 5 TX       28
 6 PA       25
 7 MA       23
 8 WA       23
 9 IN       22
10 WI       20
# ... with 41 more rows
```
…
